<?xml version="1.0" encoding="UTF-8" standalone="no"?>
<!-- Created with Inkscape (http://www.inkscape.org/) -->

<svg
   xmlns:dc="http://purl.org/dc/elements/1.1/"
   xmlns:cc="http://creativecommons.org/ns#"
   xmlns:rdf="http://www.w3.org/1999/02/22-rdf-syntax-ns#"
   xmlns:svg="http://www.w3.org/2000/svg"
   xmlns="http://www.w3.org/2000/svg"
   xmlns:sodipodi="http://sodipodi.sourceforge.net/DTD/sodipodi-0.dtd"
   xmlns:inkscape="http://www.inkscape.org/namespaces/inkscape"
   width="239mm"
   height="210mm"
   viewBox="0 0 846.85036 744.09448"
   id="svg2"
   version="1.1"
   inkscape:version="0.91 r"
   sodipodi:docname="alphabet.svg"
   inkscape:export-filename="/home/christophe/Téléchargements/alphabet.png"
   inkscape:export-xdpi="150"
   inkscape:export-ydpi="150">
  <defs
     id="defs4" />
  <sodipodi:namedview
     id="base"
     pagecolor="#ffffff"
     bordercolor="#666666"
     borderopacity="1.0"
     inkscape:pageopacity="0.0"
     inkscape:pageshadow="2"
     inkscape:zoom="0.90709658"
     inkscape:cx="208.923"
     inkscape:cy="328.75988"
     inkscape:document-units="px"
     inkscape:current-layer="layer1"
     showgrid="false"
     width="296mm"
     inkscape:window-width="1920"
     inkscape:window-height="1028"
     inkscape:window-x="0"
     inkscape:window-y="0"
     inkscape:window-maximized="1" />
  <metadata
     id="metadata7">
    <rdf:RDF>
      <cc:Work
         rdf:about="">
        <dc:format>image/svg+xml</dc:format>
        <dc:type
           rdf:resource="http://purl.org/dc/dcmitype/StillImage" />
        <dc:title />
      </cc:Work>
    </rdf:RDF>
  </metadata>
  <g
     inkscape:label="Calque 1"
     inkscape:groupmode="layer"
     id="layer1"
     transform="translate(0,-308.26772)">
    <rect
       style="opacity:1;fill:#445500;fill-opacity:1;fill-rule:nonzero;stroke:none;stroke-width:2.9000001;stroke-linecap:round;stroke-linejoin:round;stroke-miterlimit:4;stroke-dasharray:none;stroke-dashoffset:0;stroke-opacity:1"
       id="rect4138"
       width="498.96811"
       height="288.75458"
       x="-1.8086904"
       y="307.06168"
       ry="0" />
    <flowRoot
       xml:space="preserve"
       id="flowRoot4140"
       style="font-style:normal;font-weight:normal;font-size:40px;line-height:125%;font-family:Sans;letter-spacing:0px;word-spacing:0px;fill:#000000;fill-opacity:1;stroke:none;stroke-width:1px;stroke-linecap:butt;stroke-linejoin:miter;stroke-opacity:1"
       transform="matrix(1.0438862,0,0,0.92784151,-170.84499,129.40346)"><flowRegion
         id="flowRegion4142"><rect
           id="rect4144"
           width="255.71428"
           height="92.85714"
           x="332.85715"
           y="301.23734" /></flowRegion><flowPara
         id="flowPara4146"
         style="font-style:normal;font-variant:normal;font-weight:bold;font-stretch:normal;font-family:'Droid Sans';-inkscape-font-specification:'Droid Sans Bold';fill:#ffffff">Google</flowPara></flowRoot>    <g
       id="g4431"
       transform="matrix(0.81094398,0,0,0.81094398,134.65288,131.83624)"
       style="fill:#ffffff">
      <flowRoot
         transform="matrix(0.63881145,0,0,0.63881145,93.104641,359.71957)"
         style="font-style:normal;font-weight:normal;font-size:40px;line-height:125%;font-family:Sans;letter-spacing:0px;word-spacing:0px;fill:#ffffff;fill-opacity:1;stroke:none;stroke-width:1px;stroke-linecap:butt;stroke-linejoin:miter;stroke-opacity:1"
         id="flowRoot4181"
         xml:space="preserve"><flowRegion
           id="flowRegion4183"><rect
             y="182.66591"
             x="270"
             height="77.14286"
             width="232.85715"
             id="rect4185"
             style="fill:#ffffff" /></flowRegion><flowPara
           style="font-style:normal;font-variant:normal;font-weight:bold;font-stretch:normal;font-family:'Droid Sans';-inkscape-font-specification:'Droid Sans Bold';fill:#ffffff"
           id="flowPara4187">Publicité</flowPara></flowRoot>      <flowRoot
         transform="matrix(0.45020996,0,0,0.49958012,125.86298,410.90531)"
         style="font-style:normal;font-weight:normal;font-size:40px;line-height:125%;font-family:Sans;letter-spacing:0px;word-spacing:0px;fill:#ffffff;fill-opacity:1;stroke:none;stroke-width:1px;stroke-linecap:butt;stroke-linejoin:miter;stroke-opacity:1"
         id="flowRoot4181-4"
         xml:space="preserve"><flowRegion
           id="flowRegion4183-3"><rect
             y="182.66591"
             x="270"
             height="52.54361"
             width="332.37231"
             id="rect4185-1"
             style="fill:#ffffff" /></flowRegion><flowPara
           style="font-style:normal;font-variant:normal;font-weight:normal;font-stretch:normal;font-family:'Droid Sans';-inkscape-font-specification:'Droid Sans';fill:#ffffff"
           id="flowPara4187-0">Adsense/Adwords</flowPara></flowRoot>    </g>
    <g
       id="g4442"
       transform="matrix(0.81094398,0,0,0.81094398,204.02302,-96.215725)"
       style="fill:#ffffff">
      <flowRoot
         transform="translate(39.779518,522.37535)"
         style="font-style:normal;font-weight:normal;font-size:25.55245781px;line-height:125%;font-family:Sans;letter-spacing:0px;word-spacing:0px;fill:#ffffff;fill-opacity:1;stroke:none;stroke-width:1px;stroke-linecap:butt;stroke-linejoin:miter;stroke-opacity:1"
         id="flowRoot4181-5"
         xml:space="preserve"><flowRegion
           id="flowRegion4183-6"><rect
             y="-5.8933821"
             x="18.164062"
             height="49.279743"
             width="148.75182"
             id="rect4185-11"
             style="fill:#ffffff" /></flowRegion><flowPara
           style="font-style:normal;font-variant:normal;font-weight:bold;font-stretch:normal;font-family:'Droid Sans';-inkscape-font-specification:'Droid Sans Bold';fill:#ffffff"
           id="flowPara4187-00">Statistique</flowPara></flowRoot>      <flowRoot
         transform="matrix(0.45020996,0,0,0.49958012,-65.3486,449.55006)"
         style="font-style:normal;font-weight:normal;font-size:40px;line-height:125%;font-family:Sans;letter-spacing:0px;word-spacing:0px;fill:#ffffff;fill-opacity:1;stroke:none;stroke-width:1px;stroke-linecap:butt;stroke-linejoin:miter;stroke-opacity:1"
         id="flowRoot4181-4-4"
         xml:space="preserve"><flowRegion
           id="flowRegion4183-3-9"><rect
             y="182.66591"
             x="270"
             height="52.54361"
             width="332.37231"
             id="rect4185-1-0"
             style="fill:#ffffff" /></flowRegion><flowPara
           style="font-style:normal;font-variant:normal;font-weight:normal;font-stretch:normal;font-family:'Droid Sans';-inkscape-font-specification:'Droid Sans';fill:#ffffff"
           id="flowPara4187-0-4">Google Analytics</flowPara></flowRoot>    </g>
    <g
       id="g4453"
       transform="matrix(0.81094398,0,0,0.81094398,269.32702,-141.04141)"
       style="fill:#ffffff">
      <flowRoot
         transform="translate(55.493797,633.55298)"
         style="font-style:normal;font-weight:normal;font-size:25.55245781px;line-height:125%;font-family:Sans;letter-spacing:0px;word-spacing:0px;fill:#ffffff;fill-opacity:1;stroke:none;stroke-width:1px;stroke-linecap:butt;stroke-linejoin:miter;stroke-opacity:1"
         id="flowRoot4181-5-4"
         xml:space="preserve"><flowRegion
           id="flowRegion4183-6-8"><rect
             y="-5.8933821"
             x="18.164062"
             height="49.279743"
             width="169.46609"
             id="rect4185-11-8"
             style="fill:#ffffff" /></flowRegion><flowPara
           style="font-style:normal;font-variant:normal;font-weight:bold;font-stretch:normal;font-family:'Droid Sans';-inkscape-font-specification:'Droid Sans Bold';fill:#ffffff"
           id="flowPara4187-00-7">Système (OS)</flowPara></flowRoot>      <flowRoot
         transform="matrix(0.45020996,0,0,0.49958012,-40.348607,560.72769)"
         style="font-style:normal;font-weight:normal;font-size:40px;line-height:125%;font-family:Sans;letter-spacing:0px;word-spacing:0px;fill:#ffffff;fill-opacity:1;stroke:none;stroke-width:1px;stroke-linecap:butt;stroke-linejoin:miter;stroke-opacity:1"
         id="flowRoot4181-4-4-8"
         xml:space="preserve"><flowRegion
           id="flowRegion4183-3-9-4"><rect
             y="182.66591"
             x="270"
             height="55.403152"
             width="359.34387"
             id="rect4185-1-0-3"
             style="fill:#ffffff" /></flowRegion><flowPara
           style="font-style:normal;font-variant:normal;font-weight:normal;font-stretch:normal;font-family:'Droid Sans';-inkscape-font-specification:'Droid Sans';fill:#ffffff"
           id="flowPara4187-0-4-9">Android, Chrome</flowPara></flowRoot>    </g>
    <g
       id="g4497"
       transform="matrix(0.81094398,0,0,0.81094398,-304.05413,-72.29155)"
       style="fill:#ffffff">
      <flowRoot
         transform="translate(462.63665,724.98155)"
         style="font-style:normal;font-weight:normal;font-size:25.55245781px;line-height:125%;font-family:Sans;letter-spacing:0px;word-spacing:0px;fill:#ffffff;fill-opacity:1;stroke:none;stroke-width:1px;stroke-linecap:butt;stroke-linejoin:miter;stroke-opacity:1"
         id="flowRoot4181-5-9"
         xml:space="preserve"><flowRegion
           id="flowRegion4183-6-7"><rect
             y="-5.8933821"
             x="18.164062"
             height="42.851173"
             width="187.32324"
             id="rect4185-11-3"
             style="fill:#ffffff" /></flowRegion><flowPara
           style="font-style:normal;font-variant:normal;font-weight:bold;font-stretch:normal;font-family:'Droid Sans';-inkscape-font-specification:'Droid Sans Bold';fill:#ffffff"
           id="flowPara4187-00-77">Cartographie</flowPara></flowRoot>      <flowRoot
         transform="matrix(0.45020996,0,0,0.49958012,388.9371,653.58483)"
         style="font-style:normal;font-weight:normal;font-size:40px;line-height:125%;font-family:Sans;letter-spacing:0px;word-spacing:0px;fill:#ffffff;fill-opacity:1;stroke:none;stroke-width:1px;stroke-linecap:butt;stroke-linejoin:miter;stroke-opacity:1"
         id="flowRoot4181-4-4-2"
         xml:space="preserve"><flowRegion
           id="flowRegion4183-3-9-9"><rect
             y="182.66591"
             x="270"
             height="52.54361"
             width="332.37231"
             id="rect4185-1-0-1"
             style="fill:#ffffff" /></flowRegion><flowPara
           style="font-style:normal;font-variant:normal;font-weight:normal;font-stretch:normal;font-family:'Droid Sans';-inkscape-font-specification:'Droid Sans';fill:#ffffff"
           id="flowPara4187-0-4-7">Google Maps</flowPara></flowRoot>    </g>
    <g
       id="g4464"
       transform="matrix(0.81094398,0,0,0.81094398,-131.07411,-195.00489)"
       style="fill:#ffffff">
      <flowRoot
         transform="translate(185.4938,727.1244)"
         style="font-style:normal;font-weight:normal;font-size:25.55245781px;line-height:125%;font-family:Sans;letter-spacing:0px;word-spacing:0px;fill:#ffffff;fill-opacity:1;stroke:none;stroke-width:1px;stroke-linecap:butt;stroke-linejoin:miter;stroke-opacity:1"
         id="flowRoot4181-5-1"
         xml:space="preserve"><flowRegion
           id="flowRegion4183-6-4"><rect
             y="-5.8933821"
             x="18.164062"
             height="49.279743"
             width="148.75182"
             id="rect4185-11-84"
             style="fill:#ffffff" /></flowRegion><flowPara
           style="font-style:normal;font-variant:normal;font-weight:bold;font-stretch:normal;font-family:'Droid Sans';-inkscape-font-specification:'Droid Sans Bold';fill:#ffffff"
           id="flowPara4187-00-5">Téléphonie</flowPara></flowRoot>      <flowRoot
         transform="matrix(0.45020996,0,0,0.49958012,80.36568,654.29911)"
         style="font-style:normal;font-weight:normal;font-size:40px;line-height:125%;font-family:Sans;letter-spacing:0px;word-spacing:0px;fill:#ffffff;fill-opacity:1;stroke:none;stroke-width:1px;stroke-linecap:butt;stroke-linejoin:miter;stroke-opacity:1"
         id="flowRoot4181-4-4-9"
         xml:space="preserve"><flowRegion
           id="flowRegion4183-3-9-49"><rect
             y="182.66591"
             x="270"
             height="52.54361"
             width="332.37231"
             id="rect4185-1-0-0"
             style="fill:#ffffff" /></flowRegion><flowPara
           style="font-style:normal;font-variant:normal;font-weight:normal;font-stretch:normal;font-family:'Droid Sans';-inkscape-font-specification:'Droid Sans';fill:#ffffff"
           id="flowPara4187-0-4-6">Android, Nexus</flowPara></flowRoot>    </g>
    <g
       id="g4486"
       transform="matrix(0.81094398,0,0,0.81094398,-119.62143,-181.17916)"
       style="fill:#ffffff">
      <flowRoot
         transform="translate(469.06523,814.98154)"
         style="font-style:normal;font-weight:normal;font-size:25.55245781px;line-height:125%;font-family:Sans;letter-spacing:0px;word-spacing:0px;fill:#ffffff;fill-opacity:1;stroke:none;stroke-width:1px;stroke-linecap:butt;stroke-linejoin:miter;stroke-opacity:1"
         id="flowRoot4181-5-43"
         xml:space="preserve"><flowRegion
           id="flowRegion4183-6-6"><rect
             y="-5.8933821"
             x="18.164062"
             height="49.279743"
             width="148.75182"
             id="rect4185-11-5"
             style="fill:#ffffff" /></flowRegion><flowPara
           style="font-style:normal;font-variant:normal;font-weight:bold;font-stretch:normal;font-family:'Droid Sans';-inkscape-font-specification:'Droid Sans Bold';fill:#ffffff"
           id="flowPara4187-00-0">Indexation</flowPara></flowRoot>      <flowRoot
         transform="matrix(0.45020996,0,0,0.49958012,371.07997,741.44196)"
         style="font-style:normal;font-weight:normal;font-size:40px;line-height:125%;font-family:Sans;letter-spacing:0px;word-spacing:0px;fill:#ffffff;fill-opacity:1;stroke:none;stroke-width:1px;stroke-linecap:butt;stroke-linejoin:miter;stroke-opacity:1"
         id="flowRoot4181-4-4-4"
         xml:space="preserve"><flowRegion
           id="flowRegion4183-3-9-1"><rect
             y="182.66591"
             x="270"
             height="52.54361"
             width="332.37231"
             id="rect4185-1-0-5"
             style="fill:#ffffff" /></flowRegion><flowPara
           style="font-style:normal;font-variant:normal;font-weight:normal;font-stretch:normal;font-family:'Droid Sans';-inkscape-font-specification:'Droid Sans';fill:#ffffff"
           id="flowPara4187-0-4-3">Google Search</flowPara></flowRoot>    </g>
    <g
       id="g4475"
       transform="matrix(0.81094398,0,0,0.81094398,150.21185,-221.14554)"
       style="fill:#ffffff">
      <flowRoot
         transform="translate(259.06523,806.41012)"
         style="font-style:normal;font-weight:normal;font-size:25.55245781px;line-height:125%;font-family:Sans;letter-spacing:0px;word-spacing:0px;fill:#ffffff;fill-opacity:1;stroke:none;stroke-width:1px;stroke-linecap:butt;stroke-linejoin:miter;stroke-opacity:1"
         id="flowRoot4181-5-3"
         xml:space="preserve"><flowRegion
           id="flowRegion4183-6-81"><rect
             y="-5.8933821"
             x="18.164062"
             height="49.279743"
             width="148.75182"
             id="rect4185-11-2"
             style="fill:#ffffff" /></flowRegion><flowPara
           style="font-style:normal;font-variant:normal;font-weight:bold;font-stretch:normal;font-family:'Droid Sans';-inkscape-font-specification:'Droid Sans Bold';fill:#ffffff"
           id="flowPara4187-00-2">Vidéos</flowPara></flowRoot>      <flowRoot
         transform="matrix(0.45020996,0,0,0.49958012,161.79425,733.58483)"
         style="font-style:normal;font-weight:normal;font-size:40px;line-height:125%;font-family:Sans;letter-spacing:0px;word-spacing:0px;fill:#ffffff;fill-opacity:1;stroke:none;stroke-width:1px;stroke-linecap:butt;stroke-linejoin:miter;stroke-opacity:1"
         id="flowRoot4181-4-4-23"
         xml:space="preserve"><flowRegion
           id="flowRegion4183-3-9-95"><rect
             y="182.66591"
             x="270"
             height="52.54361"
             width="332.37231"
             id="rect4185-1-0-6"
             style="fill:#ffffff" /></flowRegion><flowPara
           style="font-style:normal;font-variant:normal;font-weight:normal;font-stretch:normal;font-family:'Droid Sans';-inkscape-font-specification:'Droid Sans';fill:#ffffff"
           id="flowPara4187-0-4-33">Youtube</flowPara></flowRoot>    </g>
    <g
       id="g4420"
       transform="matrix(0.81094398,0,0,0.81094398,24.815479,14.400631)"
       style="fill:#ffffff">
      <flowRoot
         transform="translate(58.350939,392.83869)"
         style="font-style:normal;font-weight:normal;font-size:25.55245781px;line-height:125%;font-family:Sans;letter-spacing:0px;word-spacing:0px;fill:#ffffff;fill-opacity:1;stroke:none;stroke-width:1px;stroke-linecap:butt;stroke-linejoin:miter;stroke-opacity:1"
         id="flowRoot4181-5-49"
         xml:space="preserve"><flowRegion
           id="flowRegion4183-6-1"><rect
             y="-5.8933821"
             x="18.164062"
             height="45.708313"
             width="185.89467"
             id="rect4185-11-56"
             style="fill:#ffffff" /></flowRegion><flowPara
           style="font-style:normal;font-variant:normal;font-weight:bold;font-stretch:normal;font-family:'Droid Sans';-inkscape-font-specification:'Droid Sans Bold';fill:#ffffff"
           id="flowPara4187-00-71">Vente en ligne</flowPara></flowRoot>      <flowRoot
         transform="matrix(0.45020996,0,0,0.49958012,-10.348608,320.0134)"
         style="font-style:normal;font-weight:normal;font-size:40px;line-height:125%;font-family:Sans;letter-spacing:0px;word-spacing:0px;fill:#ffffff;fill-opacity:1;stroke:none;stroke-width:1px;stroke-linecap:butt;stroke-linejoin:miter;stroke-opacity:1"
         id="flowRoot4181-4-4-93"
         xml:space="preserve"><flowRegion
           id="flowRegion4183-3-9-6"><rect
             y="182.66591"
             x="270"
             height="52.54361"
             width="332.37231"
             id="rect4185-1-0-9"
             style="fill:#ffffff" /></flowRegion><flowPara
           style="font-style:normal;font-variant:normal;font-weight:normal;font-stretch:normal;font-family:'Droid Sans';-inkscape-font-specification:'Droid Sans';fill:#ffffff"
           id="flowPara4187-0-4-98">Google Play</flowPara></flowRoot>    </g>
    <g
       id="g4632"
       transform="matrix(0.81094398,0,0,0.81094398,-26.955411,26.901751)"
       style="fill:#ffffff">
      <g
         transform="translate(-472.7594,-283.60454)"
         id="g4486-6"
         style="fill:#ffffff">
        <g
           id="g4557"
           transform="translate(43.501636,-1.3594261)"
           style="fill:#ffffff">
          <flowRoot
             transform="translate(501.92237,817.1244)"
             style="font-style:normal;font-weight:normal;font-size:25.55245781px;line-height:125%;font-family:Sans;letter-spacing:0px;word-spacing:0px;fill:#ffffff;fill-opacity:1;stroke:none;stroke-width:1px;stroke-linecap:butt;stroke-linejoin:miter;stroke-opacity:1"
             id="flowRoot4181-5-43-2"
             xml:space="preserve"><flowRegion
               id="flowRegion4183-6-6-6"><rect
                 y="-5.8933821"
                 x="18.164062"
                 height="44.99403"
                 width="219.46609"
                 id="rect4185-11-5-5"
                 style="fill:#ffffff" /></flowRegion><flowPara
               style="font-style:normal;font-variant:normal;font-weight:bold;font-stretch:normal;font-family:'Droid Sans';-inkscape-font-specification:'Droid Sans Bold';fill:#ffffff"
               id="flowPara4187-00-0-9">Cloud / services</flowPara></flowRoot>          <flowRoot
             transform="matrix(0.45020996,0,0,0.49958012,362.50854,747.15625)"
             style="font-style:normal;font-weight:normal;font-size:40px;line-height:125%;font-family:Sans;letter-spacing:0px;word-spacing:0px;fill:#ffffff;fill-opacity:1;stroke:none;stroke-width:1px;stroke-linecap:butt;stroke-linejoin:miter;stroke-opacity:1"
             id="flowRoot4181-4-4-4-2"
             xml:space="preserve"><flowRegion
               id="flowRegion4183-3-9-1-2"><rect
                 y="182.66591"
                 x="270"
                 height="56.832928"
                 width="625.88617"
                 id="rect4185-1-0-5-1"
                 style="fill:#ffffff" /></flowRegion><flowPara
               style="font-style:normal;font-variant:normal;font-weight:normal;font-stretch:normal;font-family:'Droid Sans';-inkscape-font-specification:'Droid Sans';fill:#ffffff"
               id="flowPara4187-0-4-3-3">Google Mail, drive, docs, photos</flowPara></flowRoot>        </g>
      </g>
    </g>
    <g
       id="g4568-29"
       transform="matrix(0.61557299,0,0,1.5871612,279.03467,-473.39826)"
       style="fill:#484537">
      <rect
         style="opacity:1;fill:#484537;fill-opacity:1;fill-rule:nonzero;stroke:none;stroke-width:2.9000001;stroke-linecap:round;stroke-linejoin:round;stroke-miterlimit:4;stroke-dasharray:none;stroke-dashoffset:0;stroke-opacity:1"
         id="rect4138-61"
         width="582.57886"
         height="182.43979"
         x="351.05798"
         y="491.11557"
         ry="0" />
    </g>
    <flowRoot
       xml:space="preserve"
       id="flowRoot4645"
       style="font-style:normal;font-weight:normal;font-size:40px;line-height:125%;font-family:Sans;text-align:center;letter-spacing:0px;word-spacing:0px;text-anchor:middle;fill:#ffffff;fill-opacity:1;stroke:none;stroke-width:1px;stroke-linecap:butt;stroke-linejoin:miter;stroke-opacity:1"
       transform="matrix(0.57374102,0,0,0.57374102,353.38297,56.311248)"><flowRegion
         id="flowRegion4647"><rect
           id="rect4649"
           width="559.94806"
           height="119.45454"
           x="280"
           y="499.80878"
           style="text-align:center;text-anchor:middle;fill:#ffffff" /></flowRegion><flowPara
         id="flowPara4651"
         style="font-style:normal;font-variant:normal;font-weight:bold;font-stretch:normal;font-family:Sans;-inkscape-font-specification:'Sans Bold';text-align:center;text-anchor:middle;fill:#ffffff">Biotechnologies, </flowPara><flowPara
         id="flowPara4662"
         style="font-style:normal;font-variant:normal;font-weight:bold;font-stretch:normal;font-family:Sans;-inkscape-font-specification:'Sans Bold';text-align:center;text-anchor:middle;fill:#ffffff">santé</flowPara></flowRoot>    <rect
       ry="0"
       y="567.49536"
       x="310.51233"
       height="143.95299"
       width="233.79752"
       id="rect4138-61-1"
       style="opacity:1;fill:#6c6753;fill-opacity:1;fill-rule:nonzero;stroke:none;stroke-width:2.9000001;stroke-linecap:round;stroke-linejoin:round;stroke-miterlimit:4;stroke-dasharray:none;stroke-dashoffset:0;stroke-opacity:1" />
    <flowRoot
       xml:space="preserve"
       id="flowRoot4645-8"
       style="font-style:normal;font-weight:normal;font-size:40px;line-height:125%;font-family:Sans;text-align:center;letter-spacing:0px;word-spacing:0px;text-anchor:middle;fill:#ffffff;fill-opacity:1;stroke:none;stroke-width:1px;stroke-linecap:butt;stroke-linejoin:miter;stroke-opacity:1"
       transform="matrix(0.70545773,0,0,0.69906955,1368.3388,-352.00714)"><flowRegion
         id="flowRegion4647-4"><rect
           id="rect4649-7"
           width="559.94806"
           height="119.45453"
           x="-1611.8531"
           y="1324.9874"
           style="text-align:center;text-anchor:middle;fill:#ffffff" /></flowRegion><flowPara
         id="flowPara4662-4"
         style="font-style:normal;font-variant:normal;font-weight:bold;font-stretch:normal;font-family:Sans;-inkscape-font-specification:'Sans Bold';text-align:center;text-anchor:middle;fill:#ffffff">Accès</flowPara><flowPara
         style="font-style:normal;font-variant:normal;font-weight:bold;font-stretch:normal;font-family:Sans;-inkscape-font-specification:'Sans Bold';text-align:center;text-anchor:middle;fill:#ffffff"
         id="flowPara4435">Internet</flowPara></flowRoot>    <rect
       ry="0"
       y="566.57324"
       x="540.55841"
       height="367.0824"
       width="310.08408"
       id="rect4138-61-1-7-2"
       style="opacity:1;fill:#668000;fill-opacity:1;fill-rule:nonzero;stroke:none;stroke-width:2.9000001;stroke-linecap:round;stroke-linejoin:round;stroke-miterlimit:4;stroke-dasharray:none;stroke-dashoffset:0;stroke-opacity:1" />
    <flowRoot
       xml:space="preserve"
       id="flowRoot5739"
       style="font-style:normal;font-weight:normal;font-size:40px;line-height:125%;font-family:Sans;letter-spacing:0px;word-spacing:0px;fill:#000000;fill-opacity:1;stroke:none;stroke-width:1px;stroke-linecap:butt;stroke-linejoin:miter;stroke-opacity:1"
       transform="matrix(1.7395423,0,0,1.6254581,-279.26527,-209.69261)"><flowRegion
         id="flowRegion5741"><rect
           id="rect5743"
           width="267.8877"
           height="78.271713"
           x="549.00439"
           y="548.96643" /></flowRegion><flowPara
         id="flowPara5745"
         style="font-style:normal;font-variant:normal;font-weight:bold;font-stretch:normal;font-family:'Droid Sans';-inkscape-font-specification:'Droid Sans Bold';fill:#ffffff">X</flowPara></flowRoot>    <flowRoot
       xml:space="preserve"
       id="flowRoot4645-8-7-7"
       style="font-style:normal;font-weight:normal;font-size:40px;line-height:125%;font-family:Sans;text-align:center;letter-spacing:0px;word-spacing:0px;text-anchor:middle;fill:#ffffff;fill-opacity:1;stroke:none;stroke-width:1px;stroke-linecap:butt;stroke-linejoin:miter;stroke-opacity:1"
       transform="matrix(0.56939594,0,0,0.58436356,1401.6293,-97.248621)"><flowRegion
         id="flowRegion4647-4-0-5"><rect
           id="rect4649-7-4-1"
           width="561.33099"
           height="164.80975"
           x="-1519.9746"
           y="1173.7987"
           style="text-align:center;text-anchor:middle;fill:#ffffff" /></flowRegion><flowPara
         id="flowPara4662-4-2-4"
         style="font-style:normal;font-variant:normal;font-weight:bold;font-stretch:normal;font-family:Sans;-inkscape-font-specification:'Sans Bold';text-align:center;text-anchor:middle;fill:#ffffff">Recherche, </flowPara><flowPara
         id="flowPara5737"
         style="font-style:normal;font-variant:normal;font-weight:bold;font-stretch:normal;font-family:Sans;-inkscape-font-specification:'Sans Bold';text-align:center;text-anchor:middle;fill:#ffffff">intelligence</flowPara><flowPara
         style="font-style:normal;font-variant:normal;font-weight:bold;font-stretch:normal;font-family:Sans;-inkscape-font-specification:'Sans Bold';text-align:center;text-anchor:middle;fill:#ffffff"
         id="flowPara4927">artificielle</flowPara></flowRoot>    <rect
       ry="0"
       y="775.63629"
       x="287.82251"
       height="155.70683"
       width="294.18021"
       id="rect4138-61-1-8-0"
       style="opacity:1;fill:#484537;fill-opacity:1;fill-rule:nonzero;stroke:none;stroke-width:2.9000001;stroke-linecap:round;stroke-linejoin:round;stroke-miterlimit:4;stroke-dasharray:none;stroke-dashoffset:0;stroke-opacity:1" />
    <rect
       style="opacity:1;fill:#6c6753;fill-opacity:1;fill-rule:nonzero;stroke:none;stroke-width:2.9000001;stroke-linecap:round;stroke-linejoin:round;stroke-miterlimit:4;stroke-dasharray:none;stroke-dashoffset:0;stroke-opacity:1"
       id="rect4138-61-1-8-0-8"
       width="343.95166"
       height="157.09035"
       x="-3.4213531"
       y="773.39349"
       ry="0" />
    <flowRoot
       xml:space="preserve"
       id="flowRoot4645-8-6-5"
       style="font-style:normal;font-weight:normal;font-size:19.39547157px;line-height:125%;font-family:Sans;text-align:center;letter-spacing:0px;word-spacing:0px;text-anchor:middle;fill:#ffffff;fill-opacity:1;stroke:none;stroke-width:1px;stroke-linecap:butt;stroke-linejoin:miter;stroke-opacity:1"
       transform="matrix(1.2296627,0,0,1.2809278,-1443.3241,-227.72118)"><flowRegion
         id="flowRegion4647-4-9-3"><rect
           id="rect4649-7-0-2"
           width="260.11096"
           height="74.687302"
           x="1413.4316"
           y="806.00751"
           style="text-align:center;text-anchor:middle;fill:#ffffff" /></flowRegion><flowPara
         id="flowPara4662-4-5-3"
         style="font-style:normal;font-variant:normal;font-weight:bold;font-stretch:normal;font-family:Sans;-inkscape-font-specification:'Sans Bold';text-align:center;text-anchor:middle;fill:#ffffff">Urbanisation et technologies</flowPara></flowRoot>    <g
       style="fill:#d400aa;fill-opacity:1"
       transform="matrix(1.2835141,0,0,1.4709121,701.18154,267.38969)"
       id="g4508-1-6-7-4-1" />
    <g
       id="g5382"
       transform="matrix(0.62737658,0,0,0.62737658,255.26577,42.772661)" />
    <g
       id="g4475-0"
       transform="matrix(0.81094398,0,0,0.81094398,379.70719,102.92811)"
       style="fill:#ffffff">
      <g
         id="g5437"
         transform="translate(385.76755,-555.78207)"
         style="fill:#ffffff">
        <flowRoot
           xml:space="preserve"
           id="flowRoot4181-5-3-0"
           style="font-style:normal;font-weight:normal;font-size:25.55245781px;line-height:125%;font-family:Sans;letter-spacing:0px;word-spacing:0px;fill:#ffffff;fill-opacity:1;stroke:none;stroke-width:1px;stroke-linecap:butt;stroke-linejoin:miter;stroke-opacity:1"
           transform="translate(-44.072833,1034.9293)"><flowRegion
             id="flowRegion4183-6-81-0"><rect
               id="rect4185-11-2-7"
               width="148.75182"
               height="49.279743"
               x="18.164062"
               y="-5.8933821"
               style="fill:#ffffff" /></flowRegion><flowPara
             id="flowPara4187-00-2-2"
             style="font-style:normal;font-variant:normal;font-weight:bold;font-stretch:normal;font-family:'Droid Sans';-inkscape-font-specification:'Droid Sans Bold';fill:#ffffff">Calico LLC</flowPara></flowRoot>        <flowRoot
           xml:space="preserve"
           id="flowRoot4181-4-4-23-4"
           style="font-style:normal;font-weight:normal;font-size:40px;line-height:125%;font-family:Sans;letter-spacing:0px;word-spacing:0px;fill:#ffffff;fill-opacity:1;stroke:none;stroke-width:1px;stroke-linecap:butt;stroke-linejoin:miter;stroke-opacity:1"
           transform="matrix(0.45020996,0,0,0.49958012,-203.46819,962.60904)"><flowRegion
             id="flowRegion4183-3-9-95-7"><rect
               id="rect4185-1-0-6-6"
               width="564.59906"
               height="112.1927"
               x="270"
               y="182.66591"
               style="fill:#ffffff" /></flowRegion><flowPara
             id="flowPara4187-0-4-33-6"
             style="font-style:normal;font-variant:normal;font-weight:normal;font-stretch:normal;font-family:'Droid Sans';-inkscape-font-specification:'Droid Sans';text-align:center;text-anchor:middle;fill:#ffffff">Maladies neurodégénératives, vieillissement, cancer</flowPara></flowRoot>      </g>
    </g>
    <g
       id="g4475-0-4"
       transform="translate(-170.52068,695.12817)">
      <g
         id="g5437-6"
         transform="translate(380,-600)">
        <g
           id="g5493"
           transform="translate(272.29736,-482.85928)">
          <rect
             style="opacity:1;fill:#b7c8b7;fill-opacity:1;fill-rule:nonzero;stroke:none;stroke-width:3.93700004;stroke-linecap:round;stroke-linejoin:round;stroke-miterlimit:4;stroke-dasharray:none;stroke-dashoffset:0;stroke-opacity:1"
             id="rect6161-0"
             width="864.33984"
             height="132.45502"
             x="-496.09991"
             y="1313.1937"
             ry="0" />
          <flowRoot
             style="font-style:normal;font-weight:normal;font-size:20.72161102px;line-height:125%;font-family:Sans;letter-spacing:0px;word-spacing:0px;fill:#ffffff;fill-opacity:1;stroke:none;stroke-width:1px;stroke-linecap:butt;stroke-linejoin:miter;stroke-opacity:1;"
             id="flowRoot4181-5-3-0-8"
             xml:space="preserve"
             transform="translate(-682.08662,46.771649)"><flowRegion
               id="flowRegion4183-6-81-0-1"><rect
                 y="766.64764"
                 x="763.87061"
                 height="39.963112"
                 width="120.62939"
                 id="rect4185-11-2-7-4"
                 style="fill:#ffffff;" /></flowRegion><flowPara
               style="font-style:normal;font-variant:normal;font-weight:bold;font-stretch:normal;font-family:'Droid Sans';-inkscape-font-specification:'Droid Sans Bold';fill:#ffffff;"
               id="flowPara4187-00-2-2-5">Verily</flowPara></flowRoot>          <flowRoot
             transform="matrix(0.36509506,0,0,0.40513149,-91.708753,761.47512)"
             style="font-style:normal;font-weight:normal;font-size:40px;line-height:125%;font-family:Sans;letter-spacing:0px;word-spacing:0px;fill:#ffffff;fill-opacity:1;stroke:none;stroke-width:1px;stroke-linecap:butt;stroke-linejoin:miter;stroke-opacity:1;"
             id="flowRoot4181-4-4-23-4-0"
             xml:space="preserve"><flowRegion
               id="flowRegion4183-3-9-95-7-1"><rect
                 y="182.66591"
                 x="270"
                 height="111.08936"
                 width="574.39374"
                 id="rect4185-1-0-6-6-4"
                 style="fill:#ffffff;" /></flowRegion><flowPara
               style="font-style:normal;font-variant:normal;font-weight:normal;font-stretch:normal;font-family:'Droid Sans';-inkscape-font-specification:'Droid Sans';text-align:center;text-anchor:middle;fill:#ffffff;"
               id="flowPara4187-0-4-33-6-6">Santé, diabète, </flowPara><flowPara
               style="font-style:normal;font-variant:normal;font-weight:normal;font-stretch:normal;font-family:'Droid Sans';-inkscape-font-specification:'Droid Sans';text-align:center;text-anchor:middle;fill:#ffffff;"
               id="flowPara4408">recherches ADN</flowPara></flowRoot>          <path
             inkscape:connector-curvature="0"
             style="fill:#ed1c24"
             d="m -414.15827,1329.4844 c 3.72444,-0.221 7.46227,-0.06 11.19343,-0.1072 9.53886,25.3677 19.03753,50.7555 28.54959,76.1301 -3.51008,0.034 -7.02687,-0.034 -10.54365,0.06 -2.71965,-7.4087 -5.15126,-14.9178 -7.75033,-22.3667 -10.51686,-0.027 -21.02703,-0.01 -31.53719,-0.01 -2.57897,7.4355 -5.09766,14.8911 -7.69003,22.3266 -3.54358,0 -7.08717,0 -10.63074,-0.01 l 0,-0.073 c 9.49867,-25.3075 19.09781,-50.5814 28.40892,-75.9558 z m -6.78572,44.5392 c 8.30632,0.013 16.61262,0.033 24.91893,-0.013 -4.17325,-11.0929 -8.15224,-22.2661 -12.42597,-33.3257 -4.41441,11.0127 -8.28621,22.2395 -12.49296,33.3392 z m 56.98532,-44.633 c 3.25553,-0.02 6.51776,-0.013 9.7733,-0.01 -0.006,25.3745 0.0134,50.7556 -0.006,76.1367 -3.25553,-0.01 -6.51107,0 -9.75991,-0.01 -0.006,-25.3744 0,-50.7488 -0.006,-76.1233 z m 82.19896,-0.01 c 3.26894,-0.01 6.54457,-0.013 9.81351,0.01 -0.12058,10.4967 0.31484,21.007 -0.41532,31.4902 3.61057,-5.2315 9.57236,-8.8287 15.96956,-9.1368 5.63356,-0.2747 11.70923,1.3932 15.52744,5.7541 3.9053,4.3474 5.20485,10.3829 5.23164,16.0767 0.0201,10.6508 0.0201,21.295 0,31.9458 -3.26224,-0.01 -6.52448,0 -9.79341,-0.01 -0.0134,-10.1886 0.0134,-20.3773 -0.007,-30.5658 -0.0335,-4.1063 -0.85073,-8.6814 -4.11297,-11.5083 -3.37612,-2.7732 -8.21923,-3.2354 -12.3322,-2.1502 -6.29672,1.9425 -9.92068,8.6679 -10.04796,14.9714 -0.0602,9.7532 0,19.4997 -0.0268,29.2529 -3.26893,0.01 -6.53117,0 -9.80011,0.01 -0.0201,-25.3812 0,-50.7623 -0.006,-76.1367 z m 111.94094,1.7015 c 3.27562,-0.013 6.54456,-0.013 9.82019,0 -0.10047,9.9207 0.28135,19.8614 -0.42201,29.7687 2.82683,-3.7512 6.67854,-6.7924 11.24032,-8.1054 7.86419,-2.5454 16.88726,-0.3014 22.83565,5.3858 11.20682,10.2623 11.90348,29.5142 1.82873,40.7813 -5.03738,5.8411 -12.96186,9.1771 -20.6653,8.1187 -6.08906,-0.6296 -11.58864,-4.066 -15.2528,-8.8958 -0.0201,2.4584 0.0134,4.9168 -0.0268,7.3819 -3.11486,-0.01 -6.22973,0 -9.34459,0 -0.0201,-24.8117 0,-49.6235 -0.0134,-74.4352 z m 22.76866,29.9898 c -5.20484,1.0182 -9.57235,4.9771 -11.42787,9.9006 -2.01629,5.2785 -2.04979,11.3139 -0.13398,16.626 1.71485,4.8229 5.78093,8.8354 10.79821,10.068 5.47278,1.4738 11.70922,-0.2813 15.46715,-4.5618 3.9187,-4.3339 5.12446,-10.5033 4.57517,-16.1771 -0.42201,-4.9102 -2.55218,-9.8404 -6.51108,-12.915 -3.53688,-2.8336 -8.35319,-3.845 -12.7676,-2.9407 z m 101.008759,-23.6046 c 3.255538,-0.013 6.511076,-0.019 9.766613,0.01 0,5.3052 -0.01344,10.6173 0.0065,15.9293 4.119666,0.01 8.239326,0 12.365676,0 l 0,8.9293 c -4.12635,0 -8.24601,-0.01 -12.365676,0 -0.01344,8.8823 -0.01344,17.7648 -0.0065,26.6472 -0.01344,2.3914 0.401921,5.1043 2.451694,6.6383 2.84693,2.1101 6.63165,1.467 9.92069,1.1321 l 0,8.8154 c -5.4125,0.6699 -11.40108,0.6832 -16.076728,-2.5253 -4.15316,-2.7667 -6.042167,-7.8977 -6.042167,-12.741 -0.06024,-9.3244 0.0065,-18.6422 -0.02678,-27.9667 -3.061283,0 -6.115856,0.01 -9.170439,-0.01 -0.01335,-2.9742 -0.01335,-5.9417 -0.0074,-8.916 3.061274,-0.013 6.115856,-0.01 9.177139,-0.01 0.01344,-5.312 -0.0074,-10.624 0.0065,-15.936 z m -273.297699,14.6231 c 8.15893,-1.6277 16.81357,1.8154 22.12559,8.0986 10.19533,11.6155 9.07666,31.4233 -2.88711,41.3976 -7.3819,6.5111 -19.01073,7.536 -27.27015,2.1034 -2.37802,-1.3934 -4.09956,-3.5704 -5.93499,-5.5532 0.77033,9.8805 0.31483,19.8012 0.4421,29.7018 -3.27563,0.013 -6.54457,0.01 -9.8135,0 0,-24.8118 -0.006,-49.6169 0,-74.4287 3.12156,-0.013 6.24983,-0.013 9.3714,0 0,2.4786 -0.006,4.9504 0.0335,7.4289 3.32922,-4.5484 8.3398,-7.8174 13.93316,-8.7484 z m -0.50241,8.9761 c -4.89001,0.9379 -9.07665,4.4613 -11.09964,8.9696 -2.26414,5.0105 -2.45839,10.8384 -1.03159,16.1168 1.43351,5.2116 5.4259,9.8068 10.69102,11.3408 5.48619,1.7216 11.87669,0.1542 15.80209,-4.0861 4.14646,-4.3475 5.42589,-10.7044 4.84982,-16.5255 -0.44882,-5.2049 -2.87372,-10.4633 -7.28812,-13.4442 -3.42971,-2.4048 -7.84411,-3.1819 -11.92358,-2.3714 z m 103.02504,-6.1962 c 5.64026,-3.2622 12.53316,-3.7646 18.84998,-2.5589 5.12445,0.9781 9.96756,3.8451 12.83458,8.2796 2.76654,4.2067 3.77803,9.3244 3.81153,14.2948 -0.006,10.2155 0.0134,20.4242 -0.0134,30.6397 -3.12157,-0.013 -6.23644,-0.013 -9.3513,-0.01 -0.0268,-2.4584 0.007,-4.9236 -0.0402,-7.3886 -3.4833,4.7493 -8.73502,8.4 -14.70351,8.9694 -4.91681,0.3953 -10.10155,-0.4354 -14.30829,-3.1215 -8.68143,-5.3656 -10.08815,-19.4997 -2.31102,-26.252 3.65074,-3.2153 8.45367,-4.7962 13.2164,-5.3991 6.12256,-0.757 12.58004,-0.1875 18.16,2.6057 0.12058,-3.5301 -0.37512,-7.3349 -2.78662,-10.0948 -3.83162,-4.5082 -10.65754,-5.2316 -15.99635,-3.3493 -3.30243,1.1254 -5.55987,3.9388 -7.32831,6.8058 -3.00099,-1.1052 -6.06226,-2.023 -9.06326,-3.1216 2.02299,-4.1531 4.9436,-8.0048 9.02976,-10.3024 z m 8.98958,25.7965 c -2.17036,0.422 -4.32732,1.2325 -6.00868,2.6995 -3.57707,2.8737 -4.19335,8.8958 -0.89762,12.2049 2.81344,2.6393 7.04027,3.1082 10.71113,2.6259 6.8929,-1.3464 13.18961,-7.8642 12.7341,-15.0854 -4.92349,-2.8871 -11.00586,-3.1684 -16.53893,-2.4449 z m 117.212758,-28.1477 c 9.09675,-2.2708 19.794475,0.1808 25.823243,7.69 4.829724,5.8011 6.47759,13.6518 6.089062,21.0539 -13.611625,0.013 -27.223255,-0.01 -40.834905,0.01 0.26126,4.7626 1.91582,9.6527 5.54647,12.9015 5.56658,5.2116 14.937979,5.2853 20.812687,0.5426 2.11007,-1.688 3.677546,-3.9455 4.836413,-6.3704 2.967501,1.132 5.868012,2.4517 8.788609,3.6909 -2.123467,4.7226 -5.573259,8.9093 -10.061348,11.5552 -5.968488,3.5302 -13.316891,4.4144 -20.049031,2.954 -6.29672,-1.3731 -11.983868,-5.3253 -15.447058,-10.7646 -5.66705,-8.7619 -6.09576,-20.518 -1.52729,-29.8424 3.12826,-6.4576 9.016368,-11.6355 16.023148,-13.4174 z m -1.46701,10.5035 c -3.56368,2.2775 -5.76083,6.1493 -6.82592,10.1551 9.96759,0.013 19.941858,0.019 29.916134,-0.01 -0.542593,-4.6622 -3.469897,-9.0498 -7.824009,-10.9455 -4.816325,-2.0766 -10.784815,-2.1302 -15.266205,0.7971 z"
             id="path4" />
          <flowRoot
             xml:space="preserve"
             id="flowRoot5166"
             style="fill:black;stroke:none;stroke-opacity:1;stroke-width:1px;stroke-linejoin:miter;stroke-linecap:butt;fill-opacity:1;font-family:Sans;font-style:normal;font-weight:normal;font-size:40px;line-height:125%;letter-spacing:0px;word-spacing:0px"><flowRegion
               id="flowRegion5168"><rect
                 id="rect5170"
                 width="467.71652"
                 height="87.307083"
                 x="577.62994"
                 y="801.77954" /></flowRegion><flowPara
               id="flowPara5172"></flowPara></flowRoot>          <g
             id="g5182"
             transform="translate(-20.65748,7.015748)">
            <flowRoot
               transform="matrix(0.61942826,0,0,0.61942826,-272.82651,952.66007)"
               style="font-style:normal;font-weight:normal;font-size:40px;line-height:125%;font-family:Sans;letter-spacing:0px;word-spacing:0px;fill:#000000;fill-opacity:1;stroke:none;stroke-width:1px;stroke-linecap:butt;stroke-linejoin:miter;stroke-opacity:1"
               id="flowRoot6163"
               xml:space="preserve"><flowRegion
                 id="flowRegion6165"><rect
                   style="fill:#000000"
                   y="643.77441"
                   x="496.08829"
                   height="100.17736"
                   width="539.22614"
                   id="rect6167" /></flowRegion><flowPara
                 style="font-style:normal;font-variant:normal;font-weight:normal;font-stretch:normal;font-size:25px;font-family:'Droid Sans';-inkscape-font-specification:'Droid Sans';text-align:center;text-anchor:middle;fill:#000000"
                 id="flowPara6173">Chiffre d'affaire (2015) : 7 498 milliards de $</flowPara><flowPara
                 id="flowPara6177"
                 style="font-style:normal;font-variant:normal;font-weight:normal;font-stretch:normal;font-size:25px;font-family:'Droid Sans';-inkscape-font-specification:'Droid Sans';text-align:center;text-anchor:middle;fill:#000000" /><flowPara
                 style="font-style:normal;font-variant:normal;font-weight:normal;font-stretch:normal;font-size:25px;font-family:'Droid Sans';-inkscape-font-specification:'Droid Sans';text-align:center;text-anchor:middle;fill:#000000"
                 id="flowPara6175" /></flowRoot>            <flowRoot
               transform="matrix(0.79712154,0,0,0.79712154,-117.91497,197.2702)"
               style="font-style:normal;font-weight:normal;font-size:17.69261169px;line-height:125%;font-family:Sans;letter-spacing:0px;word-spacing:0px;fill:#000000;fill-opacity:1;stroke:none;stroke-width:1px;stroke-linecap:butt;stroke-linejoin:miter;stroke-opacity:1"
               id="flowRoot5174"
               xml:space="preserve"><flowRegion
                 id="flowRegion5176"><rect
                   y="1479.5657"
                   x="192.98764"
                   height="28.27335"
                   width="414.44592"
                   id="rect5178" /></flowRegion><flowPara
                 id="flowPara5180">Capitalisation (fév. 2016) : 555 milliards de $</flowPara></flowRoot>          </g>
        </g>
      </g>
    </g>
    <g
       id="g4475-6"
       transform="matrix(0.81094398,0,0,0.81094398,1004.7779,69.057844)">
      <g
         id="g5608"
         transform="translate(11.904883,-21.624892)">
        <flowRoot
           xml:space="preserve"
           id="flowRoot4181-5-3-5"
           style="font-style:normal;font-weight:normal;font-size:25.55245781px;line-height:125%;font-family:Sans;letter-spacing:0px;word-spacing:0px;fill:#ffffff;fill-opacity:1;stroke:none;stroke-width:1px;stroke-linecap:butt;stroke-linejoin:miter;stroke-opacity:1"
           transform="translate(-776.89012,751.61833)"><flowRegion
             id="flowRegion4183-6-81-5"><rect
               id="rect4185-11-2-77"
               width="148.75182"
               height="49.279743"
               x="18.164062"
               y="-5.8933821"
               style="fill:#ffffff" /></flowRegion><flowPara
             id="flowPara4187-00-2-3"
             style="font-style:normal;font-variant:normal;font-weight:bold;font-stretch:normal;font-family:'Droid Sans';-inkscape-font-specification:'Droid Sans Bold';fill:#ffffff">Fiber</flowPara></flowRoot>      </g>
    </g>
    <g
       id="g4475-6-1"
       transform="matrix(0.7080341,0,0,0.7080341,402.9309,206.35262)"
       style="fill:#ffffff">
      <g
         id="g5608-8"
         transform="translate(12.763593,-8.1535829)"
         style="fill:#ffffff">
        <flowRoot
           xml:space="preserve"
           id="flowRoot4181-5-3-5-6"
           style="font-style:normal;font-weight:normal;font-size:25.55245781px;line-height:125%;font-family:Sans;letter-spacing:0px;word-spacing:0px;fill:#ffffff;fill-opacity:1;stroke:none;stroke-width:1px;stroke-linecap:butt;stroke-linejoin:miter;stroke-opacity:1"
           transform="translate(261.27007,806.41012)"><flowRegion
             id="flowRegion4183-6-81-5-2"><rect
               id="rect4185-11-2-77-2"
               width="380.25967"
               height="266.45618"
               x="18.164062"
               y="-5.8933821"
               style="fill:#ffffff" /></flowRegion><flowPara
             id="flowPara4187-00-2-3-8"
             style="font-style:normal;font-variant:normal;font-weight:bold;font-stretch:normal;font-family:'Droid Sans';-inkscape-font-specification:'Droid Sans Bold';fill:#ffffff">Glass<flowSpan
   style="font-style:normal;font-variant:normal;font-weight:normal;font-stretch:normal;font-family:'Droid Sans';-inkscape-font-specification:'Droid Sans';fill:#ffffff"
   id="flowSpan5850"> (lunettes)</flowSpan>, </flowPara><flowPara
             style="font-style:normal;font-variant:normal;font-weight:bold;font-stretch:normal;font-family:'Droid Sans';-inkscape-font-specification:'Droid Sans Bold';fill:#ffffff"
             id="flowPara5834">Car <flowSpan
   style="font-style:normal;font-variant:normal;font-weight:normal;font-stretch:normal;font-family:'Droid Sans';-inkscape-font-specification:'Droid Sans';fill:#ffffff"
   id="flowSpan5852">(voiture)</flowSpan>,</flowPara><flowPara
             style="font-style:normal;font-variant:normal;font-weight:bold;font-stretch:normal;font-family:'Droid Sans';-inkscape-font-specification:'Droid Sans Bold';fill:#ffffff"
             id="flowPara5844">Loon <flowSpan
   style="font-style:normal;font-variant:normal;font-weight:normal;font-stretch:normal;font-family:'Droid Sans';-inkscape-font-specification:'Droid Sans';fill:#ffffff"
   id="flowSpan5854">(ballons stratosph.)</flowSpan>,</flowPara><flowPara
             style="font-style:normal;font-variant:normal;font-weight:bold;font-stretch:normal;font-family:'Droid Sans';-inkscape-font-specification:'Droid Sans Bold';fill:#ffffff"
             id="flowPara5846">Wing <flowSpan
   style="font-style:normal;font-variant:normal;font-weight:normal;font-stretch:normal;font-family:'Droid Sans';-inkscape-font-specification:'Droid Sans';fill:#ffffff"
   id="flowSpan5856">(livraison drones)</flowSpan>,</flowPara><flowPara
             style="font-style:normal;font-variant:normal;font-weight:bold;font-stretch:normal;font-family:'Droid Sans';-inkscape-font-specification:'Droid Sans Bold';fill:#ffffff"
             id="flowPara5848">Nanocomposants...</flowPara></flowRoot>        <flowRoot
           xml:space="preserve"
           id="flowRoot5836"
           style="font-style:normal;font-weight:normal;font-size:40px;line-height:125%;font-family:Sans;letter-spacing:0px;word-spacing:0px;fill:#ffffff;fill-opacity:1;stroke:none;stroke-width:1px;stroke-linecap:butt;stroke-linejoin:miter;stroke-opacity:1"
           transform="translate(175.68428,260.20592)"><flowRegion
             id="flowRegion5838"><rect
               id="rect5840"
               width="14.33144"
               height="99.217659"
               x="397.97305"
               y="607.39459"
               style="fill:#ffffff" /></flowRegion><flowPara
             id="flowPara5842" /></flowRoot>      </g>
    </g>
    <g
       id="g4475-6-2"
       transform="translate(-141.50931,127.43593)" />
    <g
       id="g4508-1-6-7"
       transform="matrix(0.77410115,0,0,1.817893,-400.41282,-325.86034)"
       style="fill:#484537;fill-opacity:1">
      <g
         id="g4568-29-8-7"
         transform="translate(-4.2857143,-35.714286)"
         style="fill:#484537;fill-opacity:1">
        <rect
           style="opacity:1;fill:#484537;fill-opacity:1;fill-rule:nonzero;stroke:none;stroke-width:2.9000001;stroke-linecap:round;stroke-linejoin:round;stroke-miterlimit:4;stroke-dasharray:none;stroke-dashoffset:0;stroke-opacity:1"
           id="rect4138-61-1-8"
           width="424.28574"
           height="103.38066"
           x="504.28571"
           y="540.93365"
           ry="0" />
      </g>
    </g>
    <flowRoot
       style="font-style:normal;font-weight:normal;font-size:31.884058px;line-height:125%;font-family:Sans;text-align:center;letter-spacing:0px;word-spacing:0px;text-anchor:middle;fill:#ffffff;fill-opacity:1;stroke:none;stroke-width:1px;stroke-linecap:butt;stroke-linejoin:miter;stroke-opacity:1"
       id="flowRoot4645-8-6"
       xml:space="preserve"
       transform="matrix(0.77713875,0,0,1.1082723,35.879365,685.42633)"><flowRegion
         id="flowRegion4647-4-9"><rect
           style="text-align:center;text-anchor:middle;fill:#ffffff"
           y="-7.555851"
           x="-76.201813"
           height="95.217384"
           width="446.33542"
           id="rect4649-7-0" /></flowRegion><flowPara
         style="font-style:normal;font-variant:normal;font-weight:bold;font-stretch:normal;font-family:Sans;-inkscape-font-specification:'Sans Bold';text-align:center;text-anchor:middle;fill:#ffffff"
         id="flowPara4662-4-5">Investissements</flowPara></flowRoot>    <flowRoot
       xml:space="preserve"
       id="flowRoot4181-5-3-5-1"
       style="font-style:normal;font-weight:normal;font-size:25.55245781px;line-height:125%;font-family:Sans;letter-spacing:0px;word-spacing:0px;fill:#ffffff;fill-opacity:1;stroke:none;stroke-width:1px;stroke-linecap:butt;stroke-linejoin:miter;stroke-opacity:1"
       transform="matrix(0.75018689,0,0,0.7967006,56.763176,729.41919)"><flowRegion
         id="flowRegion4183-6-81-5-6"><rect
           style="fill:#ffffff"
           id="rect4185-11-2-77-9"
           width="220.80141"
           height="41.123188"
           x="18.164062"
           y="-5.8933821" /></flowRegion><flowPara
         id="flowPara4187-00-2-3-84"
         style="font-style:normal;font-variant:normal;font-weight:bold;font-stretch:normal;font-family:'Droid Sans';-inkscape-font-specification:'Droid Sans Bold';fill:#ffffff">(Google) Capital</flowPara></flowRoot>    <flowRoot
       xml:space="preserve"
       id="flowRoot4181-5-3-5-8-2"
       style="font-style:normal;font-weight:normal;font-size:20.72161102px;line-height:125%;font-family:Sans;letter-spacing:0px;word-spacing:0px;fill:#ffffff;fill-opacity:1;stroke:none;stroke-width:1px;stroke-linecap:butt;stroke-linejoin:miter;stroke-opacity:1"
       transform="translate(-1070.905,140.99877)"><flowRegion
         id="flowRegion4183-6-81-5-9-0"><rect
           id="rect4185-11-2-77-21-4"
           width="156.38937"
           height="31.023115"
           x="1456.1166"
           y="741.89929"
           style="fill:#ffffff" /></flowRegion><flowPara
         id="flowPara4187-00-2-3-7-0"
         style="font-style:normal;font-variant:normal;font-weight:bold;font-stretch:normal;font-family:'Droid Sans';-inkscape-font-specification:'Droid Sans Bold';fill:#ffffff">Sidewalk Labs</flowPara></flowRoot>    <flowRoot
       style="font-style:normal;font-weight:normal;font-size:40px;line-height:125%;font-family:Sans;letter-spacing:0px;word-spacing:0px;fill:#ffffff;fill-opacity:1;stroke:none;stroke-width:1px;stroke-linecap:butt;stroke-linejoin:miter;stroke-opacity:1"
       id="flowRoot5013"
       xml:space="preserve"
       transform="matrix(0.65103868,0,0,0.55177166,187.1873,422.59942)"><flowRegion
         id="flowRegion5015"><rect
           y="848.12598"
           x="-89.645699"
           height="70.937004"
           width="159.80316"
           id="rect5017"
           style="fill:#ffffff" /></flowRegion><flowPara
         style="font-style:normal;font-variant:normal;font-weight:bold;font-stretch:normal;font-family:'Droid Sans';-inkscape-font-specification:'Droid Sans Bold';fill:#ffffff"
         id="flowPara5019">Jigsaw</flowPara></flowRoot>    <flowRoot
       xml:space="preserve"
       id="flowRoot6066"
       style="font-style:normal;font-weight:normal;font-size:40px;line-height:125%;font-family:Sans;letter-spacing:0px;word-spacing:0px;fill:#ffffff;fill-opacity:1;stroke:none;stroke-width:1px;stroke-linecap:butt;stroke-linejoin:miter;stroke-opacity:1"
       transform="matrix(0.57997556,0,0,0.57997556,86.937178,327.15052)"><flowRegion
         id="flowRegion6068"><rect
           id="rect6070"
           width="594.20355"
           height="186.30872"
           x="-135.59747"
           y="806.93231"
           style="fill:#ffffff;fill-opacity:1" /></flowRegion><flowPara
         id="flowPara6072"
         style="font-style:normal;font-variant:normal;font-weight:bold;font-stretch:normal;font-family:'Droid Sans';-inkscape-font-specification:'Droid Sans Bold';text-align:center;text-anchor:middle;fill:#ffffff;fill-opacity:1">Lutte contre terrorisme attaques numériques, corruption, blanchiment</flowPara></flowRoot>    <text
       xml:space="preserve"
       style="font-style:normal;font-weight:normal;font-size:35.07013702px;line-height:125%;font-family:Sans;letter-spacing:0px;word-spacing:0px;fill:#000000;fill-opacity:1;stroke:none;stroke-width:1px;stroke-linecap:butt;stroke-linejoin:miter;stroke-opacity:1"
       x="178.61607"
       y="1042.4404"
       id="text6074"
       sodipodi:linespacing="125%"><tspan
         sodipodi:role="line"
         id="tspan6076"
         x="178.61607"
         y="1042.4404" /></text>
    <rect
       ry="0"
       y="709.77405"
       x="263.93085"
       height="87.739151"
       width="305.84647"
       id="rect4138-61-1-2"
       style="opacity:1;fill:#445500;fill-opacity:1;fill-rule:nonzero;stroke:none;stroke-width:2.9000001;stroke-linecap:round;stroke-linejoin:round;stroke-miterlimit:4;stroke-dasharray:none;stroke-dashoffset:0;stroke-opacity:1" />
    <flowRoot
       transform="translate(33.072553,-1.1024184)"
       xml:space="preserve"
       id="flowRoot4645-8-69"
       style="font-style:normal;font-weight:normal;font-size:25.85618591px;line-height:125%;font-family:Sans;text-align:center;letter-spacing:0px;word-spacing:0px;text-anchor:middle;fill:#ffffff;fill-opacity:1;stroke:none;stroke-width:1px;stroke-linecap:butt;stroke-linejoin:miter;stroke-opacity:1"><flowRegion
         id="flowRegion4647-4-5"><rect
           id="rect4649-7-8"
           width="361.953"
           height="77.215958"
           x="199.50856"
           y="720.8443"
           style="text-align:center;text-anchor:middle;fill:#ffffff" /></flowRegion><flowPara
         id="flowPara4662-4-57"
         style="font-style:normal;font-variant:normal;font-weight:bold;font-stretch:normal;font-family:Sans;-inkscape-font-specification:'Sans Bold';text-align:center;text-anchor:middle;fill:#ffffff">Capital risque</flowPara></flowRoot>    <g
       id="g4475-6-5"
       transform="matrix(0.81094398,0,0,0.81094398,988.41065,175.08441)">
      <g
         id="g5608-9"
         transform="translate(-12.126603,-18.741114)">
        <flowRoot
           xml:space="preserve"
           id="flowRoot4181-5-3-5-5"
           style="font-style:normal;font-weight:normal;font-size:25.55245781px;line-height:125%;font-family:Sans;letter-spacing:0px;word-spacing:0px;fill:#ffffff;fill-opacity:1;stroke:none;stroke-width:1px;stroke-linecap:butt;stroke-linejoin:miter;stroke-opacity:1"
           transform="translate(-770.7727,740.06321)"><flowRegion
             id="flowRegion4183-6-81-5-8"><rect
               id="rect4185-11-2-77-74"
               width="148.75182"
               height="49.279743"
               x="18.164062"
               y="-5.8933821"
               style="fill:#ffffff" /></flowRegion><flowPara
             id="flowPara4187-00-2-3-08"
             style="font-style:normal;font-variant:normal;font-weight:bold;font-stretch:normal;font-family:'Droid Sans';-inkscape-font-specification:'Droid Sans Bold';fill:#ffffff">Ventures</flowPara></flowRoot>      </g>
    </g>
    <g
       style="fill:#668000;fill-opacity:1"
       transform="matrix(0.68190692,0,0,0.86745326,-352.18299,115.03866)"
       id="g4568-29-8-6">
      <rect
         ry="0"
         y="540.93365"
         x="504.28571"
         height="103.38066"
         width="424.28574"
         id="rect4138-61-1-7"
         style="opacity:1;fill:#668000;fill-opacity:1;fill-rule:nonzero;stroke:none;stroke-width:2.9000001;stroke-linecap:round;stroke-linejoin:round;stroke-miterlimit:4;stroke-dasharray:none;stroke-dashoffset:0;stroke-opacity:1" />
    </g>
    <flowRoot
       transform="matrix(0.59781515,0,0,0.70742643,43.497225,-235.322)"
       style="font-style:normal;font-weight:normal;font-size:40px;line-height:125%;font-family:Sans;text-align:center;letter-spacing:0px;word-spacing:0px;text-anchor:middle;fill:#ffffff;fill-opacity:1;stroke:none;stroke-width:1px;stroke-linecap:butt;stroke-linejoin:miter;stroke-opacity:1"
       id="flowRoot4645-8-7"
       xml:space="preserve"><flowRegion
         id="flowRegion4647-4-0"><rect
           style="text-align:center;text-anchor:middle;fill:#ffffff"
           y="1181.5503"
           x="-117.86855"
           height="119.45453"
           width="559.94806"
           id="rect4649-7-4" /></flowRegion><flowPara
         style="font-style:normal;font-variant:normal;font-weight:bold;font-stretch:normal;font-family:Sans;-inkscape-font-specification:'Sans Bold';text-align:center;text-anchor:middle;fill:#ffffff"
         id="flowPara4662-4-2">Objets connectés</flowPara></flowRoot>    <g
       style="fill:#ffffff"
       transform="matrix(0.81094396,0,0,0.75470768,-69.96925,178.29208)"
       id="g4475-6-0">
      <g
         style="fill:#ffffff"
         transform="translate(-12.126603,-18.741114)"
         id="g5608-7">
        <g
           style="fill:#ffffff"
           transform="translate(-28.040632,-172.38307)"
           id="g5694">
          <flowRoot
             xml:space="preserve"
             id="flowRoot4181-5-3-5-9"
             style="font-style:normal;font-weight:normal;font-size:25.55245781px;line-height:125%;font-family:Sans;letter-spacing:0px;word-spacing:0px;fill:#ffffff;fill-opacity:1;stroke:none;stroke-width:1px;stroke-linecap:butt;stroke-linejoin:miter;stroke-opacity:1"
             transform="translate(261.27007,806.41012)"><flowRegion
               id="flowRegion4183-6-81-5-3"><rect
                 style="fill:#ffffff"
                 id="rect4185-11-2-77-7"
                 width="148.75182"
                 height="49.279743"
                 x="18.164062"
                 y="-5.8933821" /></flowRegion><flowPara
               id="flowPara4187-00-2-3-0"
               style="font-style:normal;font-variant:normal;font-weight:bold;font-stretch:normal;font-family:'Droid Sans';-inkscape-font-specification:'Droid Sans Bold';fill:#ffffff">Nest</flowPara></flowRoot>        </g>
      </g>
    </g>
  </g>
</svg>
